office
…
# make season and episode integers
# remove "" for parsing issues
transcripts %>% 
  mutate(season = as.integer(season),
         episode = as.integer(episode)) %>%
  mutate(character = str_remove_all(character, '"'))

## # A tibble: 55,130 x 12
##    index season episode episode_name director writer character text 
##    <int>  <int>   <int> <chr>        <chr>    <chr>  <chr>     <chr>
##  1     1      1       1 Pilot        Ken Kwa Ricky Michael   All 
##  2     2      1       1 Pilot        Ken Kwa Ricky Jim       Oh, 
##  3     3      1       1 Pilot        Ken Kwa Ricky Michael   So y
##  4     4      1       1 Pilot        Ken Kwa Ricky Jim       Actu
##  5     5      1       1 Pilot        Ken Kwa Ricky Michael   All 
##  6     6      1       1 Pilot        Ken Kwa Ricky Michael   Yes,
##  7     7      1       1 Pilot        Ken Kwa Ricky Michael   I've
##  8     8      1       1 Pilot        Ken Kwa Ricky Pam       Well
##  9     9      1       1 Pilot        Ken Kwa Ricky Michael   If y
## 10    10      1       1 Pilot        Ken Kwa Ricky Pam       What?
## #  with 55,120 more rows, and 4 more variables: text_w_direction <chr>,
## #   imdb_rating <dbl>, total_votes <int>, air_date <fct>
…
# Looking at how many lines each character has
transcripts %>% count(character, sort = TRUE)

## # A tibble: 773 x 2
##    character     n
##    <chr>     <int>
##  1 Michael   10921
##  2 Dwight     6847
##  3 Jim        6303
##  4 Pam        5031
##  5 Andy       3754
##  6 Angela     1569
##  7 Kevin      1564
##  8 Erin       1440
##  9 Oscar      1368
## 10 Ryan       1198
## #  with 763 more rows
…
# split sentences into words using unnest
transcript_words <- transcripts %>% 
  select(-text_w_direction) %>%
  unnest_tokens(word, text)

transcript_words %>%
  count(character, word)

## # A tibble: 62,710 x 3
##    character word      n
##    <chr>     <chr> <int>
##  1 Andy      0         4
##  2 Andy      1         5
##  3 Andy      10        2
##  4 Andy      100       3
##  5 Andy      109       1
##  6 Andy      115       1
##  7 Andy      12        2
##  8 Andy      1200      1
##  9 Andy      1220      1
## 10 Andy      13        1
## #  with 62,700 more rows

transcript_words %>% 
  add_count(word) %>%
  filter(n >= 20) %>%
  count(word, character) %>%
  bind_tf_idf(word, character, n) %>%
  arrange(desc(tf_idf))

## # A tibble: 26,813 x 6
##    word    character             n      tf   idf  tf_idf
##    <chr>   <chr>             <int>   <dbl> <dbl>   <dbl>
##  1 vance   Bob Vance             7 0.0315  0.898 0.0283 
##  2 address Bob Vance             2 0.00901 0.898 0.00809
##  3 bob     Bob Vance             3 0.0135  0.463 0.00625
##  4 300     Bob Vance             1 0.00450 1.35  0.00608
##  5 pum     Angela               27 0.00223 2.60  0.00581
##  6 na      Darryl               48 0.00461 1.22  0.00561
##  7 model   Bob Vance             1 0.00450 1.22  0.00548
##  8 scott   Bob Vance             3 0.0135  0.405 0.00548
##  9 andrew  Robert California    15 0.00296 1.69  0.00498
## 10 meat    Bob Vance             1 0.00450 1.10  0.00495
## #  with 26,803 more rows
